Nutrient,Units,Min,Max
Calories,kcal,2400,3000
Carbohydrates,g,200,400
Protein,g,100,200
Total Fat,g,50,100
Total Saturated Fatty acids,g,0,5
"Fatty acids, total monounsaturated",g,0,77
"Fatty acids, total polyunsaturated",g,3,22.22
"Fiber, total dietary",g,35,150
Cholesterol,mg,0,3500
Vitamin A,IU,3000,8000
Vitamin B-6,mg,1.35,80
Vitamin B-12,ug,2,200
Vitamin C,mg,125,2000
Vitamin D,IU,700,4000
Vitamin E,mg,9,250
Vitamin K,ug,100,1000
Thiamin,mg,1.25,12.5
Riboflavin,mg,1.4,14
Niacin,mg,16.5,35
Folate,ug,375,1000
Pantothenic acid,mg,5,50
Choline,mg,500,3500
"Calcium, Ca",mg,900,2500
"Copper, Cu",mg,0.9,10
"Iron, Fe",mg,9,40
"Magnesium, Mg",mg,420,910
"Manganese, Mn",mg,2.3,11
"Phosphorus, P",mg,600,4000
"Potassium, K",mg,3000,30000
"Selenium, Se",ug,56.25,375
"Sodium, Na",mg,1200,2500
"Zinc, Zn",mg,10,40
Caffeine,mg,200,500
"Alcohol, ethyl",g,0,35
American Indian/Alaska Native Foods,servings,0,10
Baby Foods,servings,0,10
Baked Products,servings,1,10
Beef Products,servings,0,10
Beverages,servings,1,5
Breakfast Cereals,servings,1,10
Cereal Grains and Pasta,servings,0,10
Dairy and Egg Products,servings,0,10
Fast Foods,servings,0,10
Fats and Oils,servings,0,10
Finfish and Shellfish Products,servings,0,10
Fruits and Fruit Juices,servings,0,10
"Lamb, Veal, and Game Products",servings,0,10
Legumes and Legume Products,servings,0,10
"Meals, Entrees, and Side Dishes",servings,0,10
Nut and Seed Products,servings,0,10
Pork Products,servings,0,10
Poultry Products,servings,0,10
Restaurant Foods,servings,0,10
Sausages and Luncheon Meats,servings,0,10
Snacks,servings,0,10
"Soups, Sauces, and Gravies",servings,0,10
Spices and Herbs,servings,0,10
Supplement,servings,1,10
Sweets,servings,0,1
Vegetables and Vegetable Products,servings,2,10
